{
	"info": {
		"_postman_id": "e4b14c1c-7fc2-4b24-b755-24e2b46f9813",
		"name": "Save to LMS",
		"schema": "https://schema.getpostman.com/json/collection/v2.1.0/collection.json"
	},
	"item": [
		{
			"name": "Two Course Images without S3 Url",
			"request": {
				"method": "POST",
				"header": [
					{
						"key": "User-Agent",
						"value": "Mozilla/5.0 (X11; Ubuntu; Linux x86_64; rv:93.0) Gecko/20100101 Firefox/93.0"
					},
					{
						"key": "Accept",
						"value": "application/json, text/plain, */*"
					},
					{
						"key": "Accept-Language",
						"value": "en-US,en;q=0.5"
					},
					{
						"key": "Content-Type",
						"value": "application/json; charset=UTF-8"
					},
					{
						"key": "Authorization",
						"value": "{{AuthorizationLocal}}"
					},
					{
						"key": "x-amz-user-agent",
						"value": "aws-amplify/3.8.1 js"
					},
					{
						"key": "Origin",
						"value": "http://localhost:3000"
					},
					{
						"key": "Connection",
						"value": "keep-alive"
					},
					{
						"key": "Referer",
						"value": "http://localhost:3000/"
					},
					{
						"key": "Sec-Fetch-Dest",
						"value": "empty"
					},
					{
						"key": "Sec-Fetch-Mode",
						"value": "cors"
					},
					{
						"key": "Sec-Fetch-Site",
						"value": "cross-site"
					},
					{
						"key": "TE",
						"value": "trailers"
					}
				],
				"body": {
					"mode": "raw",
					"raw": "{\"query\":\"mutation SaveCanvasPage($id_token: String, $courseId: String, $pageID: String, $editorContent: String, $featureListToggle: Boolean) {\\n  saveCanvasPage(id_token: $id_token, courseId: $courseId, pageID: $pageID, editorContent: $editorContent, featureListToggle: $featureListToggle)\\n}\\n\",\"variables\":{\"id_token\":\"ee104332-596d-4353-9f75-fabdccd35984\",\"courseId\":\"875\",\"pageID\":\"blank-page\",\"editorContent\":\"<div class=\\\"loree-iframe-content-row row\\\" style=\\\"padding: 10px; position:relative; margin: 0px\\\"><div class=\\\"col-12 loree-iframe-content-column\\\" style=\\\"padding:10px;\\\"><h3 class=\\\"loree-iframe-content-element\\\" style=\\\"border-width: 0px; border-style: solid; border-color: #000000; color: #000000; padding: 5px; margin: 0px 0px 10px; font-family: Lato; font-size: 46px;\\\">Hal Jordan<br></h3></div></div><div class=\\\"loree-iframe-content-row row\\\" style=\\\"padding: 10px; position:relative; margin: 0px\\\"><div class=\\\"col-lg-6 col-md-6 col-sm-12 col-xs-12 loree-iframe-content-column\\\" style=\\\"padding:10px;\\\"><div style=\\\"width:100%;margin:0 0 10px;padding:5px;display: flex;\\\" class=\\\"loree-iframe-content-image-wrapper\\\"><img alt=\\\"Hal\\\" style=\\\"width:auto;height:auto;max-width:100%;max-height:100%;border-width:0;border-style:solid;border-color:#000000\\\" class=\\\"loree-iframe-content-image\\\" src=\\\"https://crystaldelta.instructure.com/courses/875/files/373522/download?verifier=xc75cuPkBzxnKofG8z07emlMWjphMRDTYJL8hT2T\\\" data-api-endpoint=\\\"https://crystaldelta.instructure.com/api/v1/courses/875/files/373522\\\" data-api-returntype=\\\"File\\\"></div></div><div class=\\\"col-lg-6 col-md-6 col-sm-12 col-xs-12 loree-iframe-content-column\\\" style=\\\"padding: 10px;\\\"><div style=\\\"width:100%;margin:0 0 10px;padding:5px;display: flex;\\\" class=\\\"loree-iframe-content-image-wrapper\\\"><img alt=\\\"Jordan\\\" style=\\\"width:auto;height:auto;max-width:100%;max-height:100%;border-width:0;border-style:solid;border-color:#000000\\\" class=\\\"loree-iframe-content-image\\\" src=\\\"https://crystaldelta.instructure.com/courses/875/files/373523/download?verifier=IGe0dfywqKwOwSlbNOVlmgbU6j6lF35UWE6X60qv\\\" data-api-endpoint=\\\"https://crystaldelta.instructure.com/api/v1/courses/875/files/373523\\\" data-api-returntype=\\\"File\\\"></div></div></div>\",\"featureListToggle\":true}}"
				},
				"url": {
					"raw": "https://u5uy6pdtbnhbla6o7xx4w7zpk4.appsync-api.ap-southeast-2.amazonaws.com/graphql",
					"protocol": "https",
					"host": [
						"u5uy6pdtbnhbla6o7xx4w7zpk4",
						"appsync-api",
						"ap-southeast-2",
						"amazonaws",
						"com"
					],
					"path": [
						"graphql"
					]
				},
				"description": "Two Course Images without S3 Url"
			},
			"response": []
		},
		{
			"name": "2 Canvas image with Single S3 Image",
			"request": {
				"method": "POST",
				"header": [
					{
						"key": "User-Agent",
						"value": "Mozilla/5.0 (X11; Ubuntu; Linux x86_64; rv:93.0) Gecko/20100101 Firefox/93.0"
					},
					{
						"key": "Accept",
						"value": "application/json, text/plain, */*"
					},
					{
						"key": "Accept-Language",
						"value": "en-US,en;q=0.5"
					},
					{
						"key": "Content-Type",
						"value": "application/json; charset=UTF-8"
					},
					{
						"key": "Authorization",
						"value": "{{AuthorizationLocal}}"
					},
					{
						"key": "x-amz-user-agent",
						"value": "aws-amplify/3.8.1 js"
					},
					{
						"key": "Origin",
						"value": "http://localhost:3000"
					},
					{
						"key": "Connection",
						"value": "keep-alive"
					},
					{
						"key": "Referer",
						"value": "http://localhost:3000/"
					},
					{
						"key": "Sec-Fetch-Dest",
						"value": "empty"
					},
					{
						"key": "Sec-Fetch-Mode",
						"value": "cors"
					},
					{
						"key": "Sec-Fetch-Site",
						"value": "cross-site"
					},
					{
						"key": "TE",
						"value": "trailers"
					}
				],
				"body": {
					"mode": "raw",
					"raw": "{\"query\":\"mutation SaveCanvasPage($id_token: String, $courseId: String, $pageID: String, $editorContent: String, $featureListToggle: Boolean) {\\n  saveCanvasPage(id_token: $id_token, courseId: $courseId, pageID: $pageID, editorContent: $editorContent, featureListToggle: $featureListToggle)\\n}\\n\",\"variables\":{\"id_token\":\"ee104332-596d-4353-9f75-fabdccd35984\",\"courseId\":\"875\",\"pageID\":\"blank-page\",\"editorContent\":\"<div class=\\\"loree-iframe-content-row row\\\" style=\\\"padding: 10px; position:relative; margin: 0px\\\"><div class=\\\"col-12 loree-iframe-content-column\\\" style=\\\"padding:10px;\\\"><h3 class=\\\"loree-iframe-content-element\\\" style=\\\"border-width: 0px; border-style: solid; border-color: #000000; color: #000000; padding: 5px; margin: 0px 0px 10px; font-family: Lato; font-size: 46px;\\\">Hal Jordan<br></h3></div></div><div class=\\\"loree-iframe-content-row row\\\" style=\\\"padding: 10px; position:relative; margin: 0px\\\"><div class=\\\"col-lg-6 col-md-6 col-sm-12 col-xs-12 loree-iframe-content-column\\\" style=\\\"padding:10px;\\\"><div style=\\\"width:100%;margin:0 0 10px;padding:5px;display: flex;\\\" class=\\\"loree-iframe-content-image-wrapper\\\"><img alt=\\\"Hal\\\" style=\\\"width:auto;height:auto;max-width:100%;max-height:100%;border-width:0;border-style:solid;border-color:#000000\\\" class=\\\"loree-iframe-content-image\\\" src=\\\"https://crystaldelta.instructure.com/courses/875/files/373522/download?verifier=xc75cuPkBzxnKofG8z07emlMWjphMRDTYJL8hT2T\\\" data-api-endpoint=\\\"https://crystaldelta.instructure.com/api/v1/courses/875/files/373522\\\" data-api-returntype=\\\"File\\\"></div></div><div class=\\\"col-lg-6 col-md-6 col-sm-12 col-xs-12 loree-iframe-content-column\\\" style=\\\"padding: 10px;\\\"><div style=\\\"width:100%;margin:0 0 10px;padding:5px;display: flex;\\\" class=\\\"loree-iframe-content-image-wrapper\\\"><img alt=\\\"Jordan\\\" style=\\\"width:auto;height:auto;max-width:100%;max-height:100%;border-width:0;border-style:solid;border-color:#000000\\\" class=\\\"loree-iframe-content-image\\\" src=\\\"https://crystaldelta.instructure.com/courses/875/files/373523/download?verifier=IGe0dfywqKwOwSlbNOVlmgbU6j6lF35UWE6X60qv\\\" data-api-endpoint=\\\"https://crystaldelta.instructure.com/api/v1/courses/875/files/373523\\\" data-api-returntype=\\\"File\\\"></div></div></div><div class=\\\"loree-iframe-content-row row\\\" style=\\\"padding: 10px; position:relative; margin: 0px\\\"><div class=\\\"col-12 loree-iframe-content-column\\\" style=\\\"padding:10px;\\\"><div style=\\\"width:100%;margin:0 0 10px;padding:5px;display: flex;\\\" class=\\\"loree-iframe-content-image-wrapper\\\"><img alt=\\\"name withExtension\\\" style=\\\"width:auto;height:auto;max-width:100%;max-height:100%;border-width:0;border-style:solid;border-color:#000000\\\" class=\\\"loree-iframe-content-image\\\" src=\\\"https://loreev2storage24cd6295054c4df4b5661676008c768e105225-local.s3.ap-southeast-2.amazonaws.com/public/d66b1309-ac2b-48e5-b96f-c0098e8baf0a/d0f5eb54-d676-4d7c-a647-e0fe8298c471/name%20withExtension-1644223335147?X-Amz-Algorithm=AWS4-HMAC-SHA256&amp;X-Amz-Content-Sha256=UNSIGNED-PAYLOAD&amp;X-Amz-Credential=ASIATHBL7ES3PDDDMAVP%2F20220227%2Fap-southeast-2%2Fs3%2Faws4_request&amp;X-Amz-Date=20220227T150907Z&amp;X-Amz-Expires=900&amp;X-Amz-Security-Token=IQoJb3JpZ2luX2VjEH8aDmFwLXNvdXRoZWFzdC0yIkYwRAIgYNMHasmmJWtDp10%2FqUgC9FnHq00tXSGEQrlGFSsReMgCIAgOfTOB%2FlesAJo0d25HwkLDYoFplFAiiY%2FsXeN95AIvKusECNj%2F%2F%2F%2F%2F%2F%2F%2F%2F%2FwEQAxoMMjIxMjgzMDM0Mjk0IgxJa4M4I%2FJSTXgAc9kqvwS%2FROPaNiBitEQ852IjFSKreqiex6VDw%2BxC04ioQIQgBzw%2FboBSLjYaMtUu0Q8ir9yf6TYsvRDbufswPOjMPeQUgDP0LOTkI3seVgp6DDhxdNnsGVjEsq7VK%2FB%2BYpdqXBQfatoCN4ArqjRIdwX4TRCM%2BOqCcxNwPgec%2B8YLLX1gburYbrr4P2DW%2FpUhIr%2F7f2aZ0ExcAgkom0kXocpzgtLrfsreeOJEe3WYxA7o7ySJwFpKGWi62438X3588MbOIBusH1v%2FdHxykmHw9bs488DgJMyCyXEcbWcfZQyens1X40ylMTTSBnDqX7%2Bk8HfxDSRQd88lVSB%2FezIycgusKgOtBfBaF%2BXRSRZv02eeQfBtLWGi0nbUQ3Ngb6Gp%2Fg%2BL5gt2EmpBNN%2F6Lx5WofFdzquv3J7jkLK4s62sw99NlZamAEuciD0kqDIuNlXrX4lYQMVYRdFccYP2bYC4zJQd0E%2F9QSo6Tcc6ccZMN3sUbml859VopkMuVjhX5oS%2BLVNImqoQRSMvcTcXrPPNckI39mVlpAwRZq488Wwzm13VF2ANBKmMj5BM4ysLXFFyzS%2FHcKkjcbjUBqWrwwJ%2FPSwi%2BM%2F9uCu%2F6lpqc%2BndACCWGGfHs70C%2ByOPHgO3G0pFcGPItTTIHHlgJj%2B6Hc95STCNTlGVgv2ljvrEGaPyG%2FUOQb90gkAV%2Fs5J6oExgdzTs343VHSu6rouTgYeIT4W2UjNoPkyrXEJS1bK64RY%2FFGKR3C1MKV2iKjhFPYKf6W28QJ50jDbpu6QBjqGAjwsMRxno9SWefsZz0cpl3eqf%2FZ4orM9RpruKWiE71OJGLaJMCYThMcYiEhRp4wuZLxVu4yDWux4YlkwfpHaY1x%2FcRW%2FtU%2BzEEV%2FgNj1K%2BCr%2F%2FW%2FNx%2B13oOSW2tYDzTKOflxLM4la6E66m7A0RHUXaG46ry4SG9WFvkfHBeySBaL0tSqSeG2P46ZqCWGXrNHtzaPJjkRyH94ZPcwLF8rtBCZ5qd%2B8gYjFP9xAzeyTBL3j8B60qrExAzcl7nxFt4%2BNW5TlFwWMEoIZjlEOaI68%2FP04vhzMgvc9JG6zW4eOy9rE8IN3pQouGRpY%2BValyghqvFm1eVroQ7DwgwuigLCZJs1guoNaAs%3D&amp;X-Amz-Signature=8529dbe54be0fe459b52b993c6dac1ce7096eaa9eb8cffcdd8fcd9cb422763dc&amp;X-Amz-SignedHeaders=host&amp;x-amz-user-agent=aws-sdk-js-v3-%40aws-sdk%2Fclient-s3%2F1.0.0-gamma.8%20Mozilla%2F5.0%20%28X11%3B%20Ubuntu%3B%20Linux%20x86_64%3B%20rv%3A93.0%29%20Gecko%2F20100101%20Firefox%2F93.0%20aws-amplify%2F3.8.1%20js&amp;x-id=GetObject\\\"></div></div></div>\",\"featureListToggle\":true}}"
				},
				"url": {
					"raw": "https://u5uy6pdtbnhbla6o7xx4w7zpk4.appsync-api.ap-southeast-2.amazonaws.com/graphql",
					"protocol": "https",
					"host": [
						"u5uy6pdtbnhbla6o7xx4w7zpk4",
						"appsync-api",
						"ap-southeast-2",
						"amazonaws",
						"com"
					],
					"path": [
						"graphql"
					]
				}
			},
			"response": []
		},
		{
			"name": "2 Canvas image with multi S3 images(7 S3 images)",
			"request": {
				"method": "POST",
				"header": [
					{
						"key": "User-Agent",
						"value": "Mozilla/5.0 (X11; Ubuntu; Linux x86_64; rv:93.0) Gecko/20100101 Firefox/93.0"
					},
					{
						"key": "Accept",
						"value": "application/json, text/plain, */*"
					},
					{
						"key": "Accept-Language",
						"value": "en-US,en;q=0.5"
					},
					{
						"key": "Content-Type",
						"value": "application/json; charset=UTF-8"
					},
					{
						"key": "Authorization",
						"value": "{{AuthorizationLocal}}"
					},
					{
						"key": "x-amz-user-agent",
						"value": "aws-amplify/3.8.1 js"
					},
					{
						"key": "Origin",
						"value": "http://localhost:3000"
					},
					{
						"key": "Connection",
						"value": "keep-alive"
					},
					{
						"key": "Referer",
						"value": "http://localhost:3000/"
					},
					{
						"key": "Sec-Fetch-Dest",
						"value": "empty"
					},
					{
						"key": "Sec-Fetch-Mode",
						"value": "cors"
					},
					{
						"key": "Sec-Fetch-Site",
						"value": "cross-site"
					},
					{
						"key": "TE",
						"value": "trailers"
					}
				],
				"body": {
					"mode": "raw",
					"raw": "{\"query\":\"mutation SaveCanvasPage($id_token: String, $courseId: String, $pageID: String, $editorContent: String, $featureListToggle: Boolean) {\\n  saveCanvasPage(id_token: $id_token, courseId: $courseId, pageID: $pageID, editorContent: $editorContent, featureListToggle: $featureListToggle)\\n}\\n\",\"variables\":{\"id_token\":\"ee104332-596d-4353-9f75-fabdccd35984\",\"courseId\":\"875\",\"pageID\":\"blank-page\",\"editorContent\":\"<div class=\\\"loree-iframe-content-row row\\\" style=\\\"padding: 10px; position:relative; margin: 0px\\\"><div class=\\\"col-12 loree-iframe-content-column\\\" style=\\\"padding:10px;\\\"><h3 class=\\\"loree-iframe-content-element\\\" style=\\\"border-width: 0px; border-style: solid; border-color: #000000; color: #000000; padding: 5px; margin: 0px 0px 10px; font-family: Lato; font-size: 46px;\\\">Hal Jordan<br></h3></div></div><div class=\\\"loree-iframe-content-row row\\\" style=\\\"padding: 10px; position:relative; margin: 0px\\\"><div class=\\\"col-lg-6 col-md-6 col-sm-12 col-xs-12 loree-iframe-content-column\\\" style=\\\"padding:10px;\\\"><div style=\\\"width:100%;margin:0 0 10px;padding:5px;display: flex;\\\" class=\\\"loree-iframe-content-image-wrapper\\\"><img alt=\\\"Hal\\\" style=\\\"width:auto;height:auto;max-width:100%;max-height:100%;border-width:0;border-style:solid;border-color:#000000\\\" class=\\\"loree-iframe-content-image\\\" src=\\\"https://crystaldelta.instructure.com/courses/875/files/373522/download?verifier=xc75cuPkBzxnKofG8z07emlMWjphMRDTYJL8hT2T\\\" data-api-endpoint=\\\"https://crystaldelta.instructure.com/api/v1/courses/875/files/373522\\\" data-api-returntype=\\\"File\\\"></div></div><div class=\\\"col-lg-6 col-md-6 col-sm-12 col-xs-12 loree-iframe-content-column\\\" style=\\\"padding: 10px;\\\"><div style=\\\"width:100%;margin:0 0 10px;padding:5px;display: flex;\\\" class=\\\"loree-iframe-content-image-wrapper\\\"><img alt=\\\"Jordan\\\" style=\\\"width:auto;height:auto;max-width:100%;max-height:100%;border-width:0;border-style:solid;border-color:#000000\\\" class=\\\"loree-iframe-content-image\\\" src=\\\"https://crystaldelta.instructure.com/courses/875/files/373523/download?verifier=IGe0dfywqKwOwSlbNOVlmgbU6j6lF35UWE6X60qv\\\" data-api-endpoint=\\\"https://crystaldelta.instructure.com/api/v1/courses/875/files/373523\\\" data-api-returntype=\\\"File\\\"></div></div></div><div class=\\\"loree-iframe-content-row row\\\" style=\\\"padding: 10px; position:relative; margin: 0px\\\"><div class=\\\"col-12 loree-iframe-content-column\\\" style=\\\"padding:10px;\\\"><div style=\\\"width:100%;margin:0 0 10px;padding:5px;display: flex;\\\" class=\\\"loree-iframe-content-image-wrapper \\\"><img alt=\\\"name withExtension\\\" style=\\\"width:auto;height:auto;max-width:100%;max-height:100%;border-width:0;border-style:solid;border-color:#000000\\\" class=\\\"loree-iframe-content-image\\\" src=\\\"https://loreev2storage24cd6295054c4df4b5661676008c768e105225-local.s3.ap-southeast-2.amazonaws.com/public/d66b1309-ac2b-48e5-b96f-c0098e8baf0a/d0f5eb54-d676-4d7c-a647-e0fe8298c471/name%20withExtension-1644223335147?X-Amz-Algorithm=AWS4-HMAC-SHA256&amp;X-Amz-Content-Sha256=UNSIGNED-PAYLOAD&amp;X-Amz-Credential=ASIATHBL7ES3PDDDMAVP%2F20220227%2Fap-southeast-2%2Fs3%2Faws4_request&amp;X-Amz-Date=20220227T151032Z&amp;X-Amz-Expires=900&amp;X-Amz-Security-Token=IQoJb3JpZ2luX2VjEH8aDmFwLXNvdXRoZWFzdC0yIkYwRAIgYNMHasmmJWtDp10%2FqUgC9FnHq00tXSGEQrlGFSsReMgCIAgOfTOB%2FlesAJo0d25HwkLDYoFplFAiiY%2FsXeN95AIvKusECNj%2F%2F%2F%2F%2F%2F%2F%2F%2F%2FwEQAxoMMjIxMjgzMDM0Mjk0IgxJa4M4I%2FJSTXgAc9kqvwS%2FROPaNiBitEQ852IjFSKreqiex6VDw%2BxC04ioQIQgBzw%2FboBSLjYaMtUu0Q8ir9yf6TYsvRDbufswPOjMPeQUgDP0LOTkI3seVgp6DDhxdNnsGVjEsq7VK%2FB%2BYpdqXBQfatoCN4ArqjRIdwX4TRCM%2BOqCcxNwPgec%2B8YLLX1gburYbrr4P2DW%2FpUhIr%2F7f2aZ0ExcAgkom0kXocpzgtLrfsreeOJEe3WYxA7o7ySJwFpKGWi62438X3588MbOIBusH1v%2FdHxykmHw9bs488DgJMyCyXEcbWcfZQyens1X40ylMTTSBnDqX7%2Bk8HfxDSRQd88lVSB%2FezIycgusKgOtBfBaF%2BXRSRZv02eeQfBtLWGi0nbUQ3Ngb6Gp%2Fg%2BL5gt2EmpBNN%2F6Lx5WofFdzquv3J7jkLK4s62sw99NlZamAEuciD0kqDIuNlXrX4lYQMVYRdFccYP2bYC4zJQd0E%2F9QSo6Tcc6ccZMN3sUbml859VopkMuVjhX5oS%2BLVNImqoQRSMvcTcXrPPNckI39mVlpAwRZq488Wwzm13VF2ANBKmMj5BM4ysLXFFyzS%2FHcKkjcbjUBqWrwwJ%2FPSwi%2BM%2F9uCu%2F6lpqc%2BndACCWGGfHs70C%2ByOPHgO3G0pFcGPItTTIHHlgJj%2B6Hc95STCNTlGVgv2ljvrEGaPyG%2FUOQb90gkAV%2Fs5J6oExgdzTs343VHSu6rouTgYeIT4W2UjNoPkyrXEJS1bK64RY%2FFGKR3C1MKV2iKjhFPYKf6W28QJ50jDbpu6QBjqGAjwsMRxno9SWefsZz0cpl3eqf%2FZ4orM9RpruKWiE71OJGLaJMCYThMcYiEhRp4wuZLxVu4yDWux4YlkwfpHaY1x%2FcRW%2FtU%2BzEEV%2FgNj1K%2BCr%2F%2FW%2FNx%2B13oOSW2tYDzTKOflxLM4la6E66m7A0RHUXaG46ry4SG9WFvkfHBeySBaL0tSqSeG2P46ZqCWGXrNHtzaPJjkRyH94ZPcwLF8rtBCZ5qd%2B8gYjFP9xAzeyTBL3j8B60qrExAzcl7nxFt4%2BNW5TlFwWMEoIZjlEOaI68%2FP04vhzMgvc9JG6zW4eOy9rE8IN3pQouGRpY%2BValyghqvFm1eVroQ7DwgwuigLCZJs1guoNaAs%3D&amp;X-Amz-Signature=36ed50438e34c025a5ec17b2cea5e7e27a0bb691eb70e244f7fe63a544b334fd&amp;X-Amz-SignedHeaders=host&amp;x-amz-user-agent=aws-sdk-js-v3-%40aws-sdk%2Fclient-s3%2F1.0.0-gamma.8%20Mozilla%2F5.0%20%28X11%3B%20Ubuntu%3B%20Linux%20x86_64%3B%20rv%3A93.0%29%20Gecko%2F20100101%20Firefox%2F93.0%20aws-amplify%2F3.8.1%20js&amp;x-id=GetObject\\\"></div></div></div><div class=\\\"loree-iframe-content-row row\\\" style=\\\"padding: 10px; position:relative; margin: 0px\\\"><div class=\\\"col-12 loree-iframe-content-column\\\" style=\\\"padding:10px;\\\"><div style=\\\"width:100%;margin:0 0 10px;padding:5px;display: flex;\\\" class=\\\"loree-iframe-content-image-wrapper\\\"><img alt=\\\"all in\\\" style=\\\"width:auto;height:auto;max-width:100%;max-height:100%;border-width:0;border-style:solid;border-color:#000000\\\" class=\\\"loree-iframe-content-image\\\" src=\\\"https://loreev2storage24cd6295054c4df4b5661676008c768e105225-local.s3.ap-southeast-2.amazonaws.com/public/d66b1309-ac2b-48e5-b96f-c0098e8baf0a/d0f5eb54-d676-4d7c-a647-e0fe8298c471/all%20in-1644065463981?X-Amz-Algorithm=AWS4-HMAC-SHA256&amp;X-Amz-Content-Sha256=UNSIGNED-PAYLOAD&amp;X-Amz-Credential=ASIATHBL7ES3PDDDMAVP%2F20220227%2Fap-southeast-2%2Fs3%2Faws4_request&amp;X-Amz-Date=20220227T151036Z&amp;X-Amz-Expires=900&amp;X-Amz-Security-Token=IQoJb3JpZ2luX2VjEH8aDmFwLXNvdXRoZWFzdC0yIkYwRAIgYNMHasmmJWtDp10%2FqUgC9FnHq00tXSGEQrlGFSsReMgCIAgOfTOB%2FlesAJo0d25HwkLDYoFplFAiiY%2FsXeN95AIvKusECNj%2F%2F%2F%2F%2F%2F%2F%2F%2F%2FwEQAxoMMjIxMjgzMDM0Mjk0IgxJa4M4I%2FJSTXgAc9kqvwS%2FROPaNiBitEQ852IjFSKreqiex6VDw%2BxC04ioQIQgBzw%2FboBSLjYaMtUu0Q8ir9yf6TYsvRDbufswPOjMPeQUgDP0LOTkI3seVgp6DDhxdNnsGVjEsq7VK%2FB%2BYpdqXBQfatoCN4ArqjRIdwX4TRCM%2BOqCcxNwPgec%2B8YLLX1gburYbrr4P2DW%2FpUhIr%2F7f2aZ0ExcAgkom0kXocpzgtLrfsreeOJEe3WYxA7o7ySJwFpKGWi62438X3588MbOIBusH1v%2FdHxykmHw9bs488DgJMyCyXEcbWcfZQyens1X40ylMTTSBnDqX7%2Bk8HfxDSRQd88lVSB%2FezIycgusKgOtBfBaF%2BXRSRZv02eeQfBtLWGi0nbUQ3Ngb6Gp%2Fg%2BL5gt2EmpBNN%2F6Lx5WofFdzquv3J7jkLK4s62sw99NlZamAEuciD0kqDIuNlXrX4lYQMVYRdFccYP2bYC4zJQd0E%2F9QSo6Tcc6ccZMN3sUbml859VopkMuVjhX5oS%2BLVNImqoQRSMvcTcXrPPNckI39mVlpAwRZq488Wwzm13VF2ANBKmMj5BM4ysLXFFyzS%2FHcKkjcbjUBqWrwwJ%2FPSwi%2BM%2F9uCu%2F6lpqc%2BndACCWGGfHs70C%2ByOPHgO3G0pFcGPItTTIHHlgJj%2B6Hc95STCNTlGVgv2ljvrEGaPyG%2FUOQb90gkAV%2Fs5J6oExgdzTs343VHSu6rouTgYeIT4W2UjNoPkyrXEJS1bK64RY%2FFGKR3C1MKV2iKjhFPYKf6W28QJ50jDbpu6QBjqGAjwsMRxno9SWefsZz0cpl3eqf%2FZ4orM9RpruKWiE71OJGLaJMCYThMcYiEhRp4wuZLxVu4yDWux4YlkwfpHaY1x%2FcRW%2FtU%2BzEEV%2FgNj1K%2BCr%2F%2FW%2FNx%2B13oOSW2tYDzTKOflxLM4la6E66m7A0RHUXaG46ry4SG9WFvkfHBeySBaL0tSqSeG2P46ZqCWGXrNHtzaPJjkRyH94ZPcwLF8rtBCZ5qd%2B8gYjFP9xAzeyTBL3j8B60qrExAzcl7nxFt4%2BNW5TlFwWMEoIZjlEOaI68%2FP04vhzMgvc9JG6zW4eOy9rE8IN3pQouGRpY%2BValyghqvFm1eVroQ7DwgwuigLCZJs1guoNaAs%3D&amp;X-Amz-Signature=28f0837d25cb88fbcca3018c001ff742cda8991a6f106d16aea20770b52d00e3&amp;X-Amz-SignedHeaders=host&amp;x-amz-user-agent=aws-sdk-js-v3-%40aws-sdk%2Fclient-s3%2F1.0.0-gamma.8%20Mozilla%2F5.0%20%28X11%3B%20Ubuntu%3B%20Linux%20x86_64%3B%20rv%3A93.0%29%20Gecko%2F20100101%20Firefox%2F93.0%20aws-amplify%2F3.8.1%20js&amp;x-id=GetObject\\\"></div></div></div><div class=\\\"loree-iframe-content-row row\\\" style=\\\"padding: 10px; position:relative; margin: 0px\\\"><div class=\\\"col-12 loree-iframe-content-column\\\" style=\\\"padding:10px;\\\"><div style=\\\"width:100%;margin:0 0 10px;padding:5px;display: flex;\\\" class=\\\"loree-iframe-content-image-wrapper\\\"><img alt=\\\"\\\" style=\\\"width:auto;height:auto;max-width:100%;max-height:100%;border-width:0;border-style:solid;border-color:#000000\\\" class=\\\"loree-iframe-content-image\\\" src=\\\"https://loreev2storage24cd6295054c4df4b5661676008c768e105225-local.s3.ap-southeast-2.amazonaws.com/public/d66b1309-ac2b-48e5-b96f-c0098e8baf0a/d0f5eb54-d676-4d7c-a647-e0fe8298c471/-1643979359739?X-Amz-Algorithm=AWS4-HMAC-SHA256&amp;X-Amz-Content-Sha256=UNSIGNED-PAYLOAD&amp;X-Amz-Credential=ASIATHBL7ES3PDDDMAVP%2F20220227%2Fap-southeast-2%2Fs3%2Faws4_request&amp;X-Amz-Date=20220227T151042Z&amp;X-Amz-Expires=900&amp;X-Amz-Security-Token=IQoJb3JpZ2luX2VjEH8aDmFwLXNvdXRoZWFzdC0yIkYwRAIgYNMHasmmJWtDp10%2FqUgC9FnHq00tXSGEQrlGFSsReMgCIAgOfTOB%2FlesAJo0d25HwkLDYoFplFAiiY%2FsXeN95AIvKusECNj%2F%2F%2F%2F%2F%2F%2F%2F%2F%2FwEQAxoMMjIxMjgzMDM0Mjk0IgxJa4M4I%2FJSTXgAc9kqvwS%2FROPaNiBitEQ852IjFSKreqiex6VDw%2BxC04ioQIQgBzw%2FboBSLjYaMtUu0Q8ir9yf6TYsvRDbufswPOjMPeQUgDP0LOTkI3seVgp6DDhxdNnsGVjEsq7VK%2FB%2BYpdqXBQfatoCN4ArqjRIdwX4TRCM%2BOqCcxNwPgec%2B8YLLX1gburYbrr4P2DW%2FpUhIr%2F7f2aZ0ExcAgkom0kXocpzgtLrfsreeOJEe3WYxA7o7ySJwFpKGWi62438X3588MbOIBusH1v%2FdHxykmHw9bs488DgJMyCyXEcbWcfZQyens1X40ylMTTSBnDqX7%2Bk8HfxDSRQd88lVSB%2FezIycgusKgOtBfBaF%2BXRSRZv02eeQfBtLWGi0nbUQ3Ngb6Gp%2Fg%2BL5gt2EmpBNN%2F6Lx5WofFdzquv3J7jkLK4s62sw99NlZamAEuciD0kqDIuNlXrX4lYQMVYRdFccYP2bYC4zJQd0E%2F9QSo6Tcc6ccZMN3sUbml859VopkMuVjhX5oS%2BLVNImqoQRSMvcTcXrPPNckI39mVlpAwRZq488Wwzm13VF2ANBKmMj5BM4ysLXFFyzS%2FHcKkjcbjUBqWrwwJ%2FPSwi%2BM%2F9uCu%2F6lpqc%2BndACCWGGfHs70C%2ByOPHgO3G0pFcGPItTTIHHlgJj%2B6Hc95STCNTlGVgv2ljvrEGaPyG%2FUOQb90gkAV%2Fs5J6oExgdzTs343VHSu6rouTgYeIT4W2UjNoPkyrXEJS1bK64RY%2FFGKR3C1MKV2iKjhFPYKf6W28QJ50jDbpu6QBjqGAjwsMRxno9SWefsZz0cpl3eqf%2FZ4orM9RpruKWiE71OJGLaJMCYThMcYiEhRp4wuZLxVu4yDWux4YlkwfpHaY1x%2FcRW%2FtU%2BzEEV%2FgNj1K%2BCr%2F%2FW%2FNx%2B13oOSW2tYDzTKOflxLM4la6E66m7A0RHUXaG46ry4SG9WFvkfHBeySBaL0tSqSeG2P46ZqCWGXrNHtzaPJjkRyH94ZPcwLF8rtBCZ5qd%2B8gYjFP9xAzeyTBL3j8B60qrExAzcl7nxFt4%2BNW5TlFwWMEoIZjlEOaI68%2FP04vhzMgvc9JG6zW4eOy9rE8IN3pQouGRpY%2BValyghqvFm1eVroQ7DwgwuigLCZJs1guoNaAs%3D&amp;X-Amz-Signature=a0b3ee77d3ae6101a825dacacf5c605e2c3123ceb202caec0357f5400e3830e7&amp;X-Amz-SignedHeaders=host&amp;x-amz-user-agent=aws-sdk-js-v3-%40aws-sdk%2Fclient-s3%2F1.0.0-gamma.8%20Mozilla%2F5.0%20%28X11%3B%20Ubuntu%3B%20Linux%20x86_64%3B%20rv%3A93.0%29%20Gecko%2F20100101%20Firefox%2F93.0%20aws-amplify%2F3.8.1%20js&amp;x-id=GetObject\\\"></div></div></div><div class=\\\"loree-iframe-content-row row\\\" style=\\\"padding: 10px; position:relative; margin: 0px\\\"><div class=\\\"col-12 loree-iframe-content-column\\\" style=\\\"padding:10px;\\\"><div style=\\\"width:100%;margin:0 0 10px;padding:5px;display: flex;\\\" class=\\\"loree-iframe-content-image-wrapper \\\"><img alt=\\\"name withExtension\\\" style=\\\"width:auto;height:auto;max-width:100%;max-height:100%;border-width:0;border-style:solid;border-color:#000000\\\" class=\\\"loree-iframe-content-image\\\" src=\\\"https://loreev2storage24cd6295054c4df4b5661676008c768e105225-local.s3.ap-southeast-2.amazonaws.com/public/d66b1309-ac2b-48e5-b96f-c0098e8baf0a/d0f5eb54-d676-4d7c-a647-e0fe8298c471/name%20withExtension-1644223335147?X-Amz-Algorithm=AWS4-HMAC-SHA256&amp;X-Amz-Content-Sha256=UNSIGNED-PAYLOAD&amp;X-Amz-Credential=ASIATHBL7ES3PDDDMAVP%2F20220227%2Fap-southeast-2%2Fs3%2Faws4_request&amp;X-Amz-Date=20220227T151047Z&amp;X-Amz-Expires=900&amp;X-Amz-Security-Token=IQoJb3JpZ2luX2VjEH8aDmFwLXNvdXRoZWFzdC0yIkYwRAIgYNMHasmmJWtDp10%2FqUgC9FnHq00tXSGEQrlGFSsReMgCIAgOfTOB%2FlesAJo0d25HwkLDYoFplFAiiY%2FsXeN95AIvKusECNj%2F%2F%2F%2F%2F%2F%2F%2F%2F%2FwEQAxoMMjIxMjgzMDM0Mjk0IgxJa4M4I%2FJSTXgAc9kqvwS%2FROPaNiBitEQ852IjFSKreqiex6VDw%2BxC04ioQIQgBzw%2FboBSLjYaMtUu0Q8ir9yf6TYsvRDbufswPOjMPeQUgDP0LOTkI3seVgp6DDhxdNnsGVjEsq7VK%2FB%2BYpdqXBQfatoCN4ArqjRIdwX4TRCM%2BOqCcxNwPgec%2B8YLLX1gburYbrr4P2DW%2FpUhIr%2F7f2aZ0ExcAgkom0kXocpzgtLrfsreeOJEe3WYxA7o7ySJwFpKGWi62438X3588MbOIBusH1v%2FdHxykmHw9bs488DgJMyCyXEcbWcfZQyens1X40ylMTTSBnDqX7%2Bk8HfxDSRQd88lVSB%2FezIycgusKgOtBfBaF%2BXRSRZv02eeQfBtLWGi0nbUQ3Ngb6Gp%2Fg%2BL5gt2EmpBNN%2F6Lx5WofFdzquv3J7jkLK4s62sw99NlZamAEuciD0kqDIuNlXrX4lYQMVYRdFccYP2bYC4zJQd0E%2F9QSo6Tcc6ccZMN3sUbml859VopkMuVjhX5oS%2BLVNImqoQRSMvcTcXrPPNckI39mVlpAwRZq488Wwzm13VF2ANBKmMj5BM4ysLXFFyzS%2FHcKkjcbjUBqWrwwJ%2FPSwi%2BM%2F9uCu%2F6lpqc%2BndACCWGGfHs70C%2ByOPHgO3G0pFcGPItTTIHHlgJj%2B6Hc95STCNTlGVgv2ljvrEGaPyG%2FUOQb90gkAV%2Fs5J6oExgdzTs343VHSu6rouTgYeIT4W2UjNoPkyrXEJS1bK64RY%2FFGKR3C1MKV2iKjhFPYKf6W28QJ50jDbpu6QBjqGAjwsMRxno9SWefsZz0cpl3eqf%2FZ4orM9RpruKWiE71OJGLaJMCYThMcYiEhRp4wuZLxVu4yDWux4YlkwfpHaY1x%2FcRW%2FtU%2BzEEV%2FgNj1K%2BCr%2F%2FW%2FNx%2B13oOSW2tYDzTKOflxLM4la6E66m7A0RHUXaG46ry4SG9WFvkfHBeySBaL0tSqSeG2P46ZqCWGXrNHtzaPJjkRyH94ZPcwLF8rtBCZ5qd%2B8gYjFP9xAzeyTBL3j8B60qrExAzcl7nxFt4%2BNW5TlFwWMEoIZjlEOaI68%2FP04vhzMgvc9JG6zW4eOy9rE8IN3pQouGRpY%2BValyghqvFm1eVroQ7DwgwuigLCZJs1guoNaAs%3D&amp;X-Amz-Signature=bfabe57ae7ee9e73b5f43ceb01108abe84a9595349d55df190f4b1ab8e1ee743&amp;X-Amz-SignedHeaders=host&amp;x-amz-user-agent=aws-sdk-js-v3-%40aws-sdk%2Fclient-s3%2F1.0.0-gamma.8%20Mozilla%2F5.0%20%28X11%3B%20Ubuntu%3B%20Linux%20x86_64%3B%20rv%3A93.0%29%20Gecko%2F20100101%20Firefox%2F93.0%20aws-amplify%2F3.8.1%20js&amp;x-id=GetObject\\\"></div></div></div><div class=\\\"loree-iframe-content-row row\\\" style=\\\"padding: 10px; position:relative; margin: 0px\\\"><div class=\\\"col-12 loree-iframe-content-column\\\" style=\\\"padding:10px;\\\"><h3 class=\\\"loree-iframe-content-element\\\" style=\\\"border-width: 0px; border-style: solid; border-color: #000000; color: #000000; padding: 5px; margin: 0px 0px 10px; font-family: Lato; font-size: 46px;\\\">My name is Barry Allen<br></h3></div></div><div class=\\\"loree-iframe-content-row row\\\" style=\\\"padding: 10px; position:relative; margin: 0px\\\"><div class=\\\"col-lg-7 col-md-7 col-sm-12 col-xs-12 loree-iframe-content-column\\\" style=\\\"padding:10px;\\\"><div style=\\\"width:100%;margin:0 0 10px;padding:5px;display: flex;\\\" class=\\\"loree-iframe-content-image-wrapper\\\"><img alt=\\\"\\\" style=\\\"width:auto;height:auto;max-width:100%;max-height:100%;border-width:0;border-style:solid;border-color:#000000\\\" class=\\\"loree-iframe-content-image\\\" src=\\\"https://loreev2storage24cd6295054c4df4b5661676008c768e105225-local.s3.ap-southeast-2.amazonaws.com/public/d66b1309-ac2b-48e5-b96f-c0098e8baf0a/d0f5eb54-d676-4d7c-a647-e0fe8298c471/-1643782923044?X-Amz-Algorithm=AWS4-HMAC-SHA256&amp;X-Amz-Content-Sha256=UNSIGNED-PAYLOAD&amp;X-Amz-Credential=ASIATHBL7ES3PDDDMAVP%2F20220227%2Fap-southeast-2%2Fs3%2Faws4_request&amp;X-Amz-Date=20220227T151057Z&amp;X-Amz-Expires=900&amp;X-Amz-Security-Token=IQoJb3JpZ2luX2VjEH8aDmFwLXNvdXRoZWFzdC0yIkYwRAIgYNMHasmmJWtDp10%2FqUgC9FnHq00tXSGEQrlGFSsReMgCIAgOfTOB%2FlesAJo0d25HwkLDYoFplFAiiY%2FsXeN95AIvKusECNj%2F%2F%2F%2F%2F%2F%2F%2F%2F%2FwEQAxoMMjIxMjgzMDM0Mjk0IgxJa4M4I%2FJSTXgAc9kqvwS%2FROPaNiBitEQ852IjFSKreqiex6VDw%2BxC04ioQIQgBzw%2FboBSLjYaMtUu0Q8ir9yf6TYsvRDbufswPOjMPeQUgDP0LOTkI3seVgp6DDhxdNnsGVjEsq7VK%2FB%2BYpdqXBQfatoCN4ArqjRIdwX4TRCM%2BOqCcxNwPgec%2B8YLLX1gburYbrr4P2DW%2FpUhIr%2F7f2aZ0ExcAgkom0kXocpzgtLrfsreeOJEe3WYxA7o7ySJwFpKGWi62438X3588MbOIBusH1v%2FdHxykmHw9bs488DgJMyCyXEcbWcfZQyens1X40ylMTTSBnDqX7%2Bk8HfxDSRQd88lVSB%2FezIycgusKgOtBfBaF%2BXRSRZv02eeQfBtLWGi0nbUQ3Ngb6Gp%2Fg%2BL5gt2EmpBNN%2F6Lx5WofFdzquv3J7jkLK4s62sw99NlZamAEuciD0kqDIuNlXrX4lYQMVYRdFccYP2bYC4zJQd0E%2F9QSo6Tcc6ccZMN3sUbml859VopkMuVjhX5oS%2BLVNImqoQRSMvcTcXrPPNckI39mVlpAwRZq488Wwzm13VF2ANBKmMj5BM4ysLXFFyzS%2FHcKkjcbjUBqWrwwJ%2FPSwi%2BM%2F9uCu%2F6lpqc%2BndACCWGGfHs70C%2ByOPHgO3G0pFcGPItTTIHHlgJj%2B6Hc95STCNTlGVgv2ljvrEGaPyG%2FUOQb90gkAV%2Fs5J6oExgdzTs343VHSu6rouTgYeIT4W2UjNoPkyrXEJS1bK64RY%2FFGKR3C1MKV2iKjhFPYKf6W28QJ50jDbpu6QBjqGAjwsMRxno9SWefsZz0cpl3eqf%2FZ4orM9RpruKWiE71OJGLaJMCYThMcYiEhRp4wuZLxVu4yDWux4YlkwfpHaY1x%2FcRW%2FtU%2BzEEV%2FgNj1K%2BCr%2F%2FW%2FNx%2B13oOSW2tYDzTKOflxLM4la6E66m7A0RHUXaG46ry4SG9WFvkfHBeySBaL0tSqSeG2P46ZqCWGXrNHtzaPJjkRyH94ZPcwLF8rtBCZ5qd%2B8gYjFP9xAzeyTBL3j8B60qrExAzcl7nxFt4%2BNW5TlFwWMEoIZjlEOaI68%2FP04vhzMgvc9JG6zW4eOy9rE8IN3pQouGRpY%2BValyghqvFm1eVroQ7DwgwuigLCZJs1guoNaAs%3D&amp;X-Amz-Signature=edd891e91ac68b8aa2d5bd92049a99dea10626084aa02f7ab3c9bcd39347ea44&amp;X-Amz-SignedHeaders=host&amp;x-amz-user-agent=aws-sdk-js-v3-%40aws-sdk%2Fclient-s3%2F1.0.0-gamma.8%20Mozilla%2F5.0%20%28X11%3B%20Ubuntu%3B%20Linux%20x86_64%3B%20rv%3A93.0%29%20Gecko%2F20100101%20Firefox%2F93.0%20aws-amplify%2F3.8.1%20js&amp;x-id=GetObject\\\" data-api-endpoint=\\\"https://crystaldelta.instructure.com/api/v1/courses/875/files/372877\\\" data-api-returntype=\\\"File\\\"></div></div><div class=\\\"col-lg-5 col-md-5 col-sm-12 col-xs-12 loree-iframe-content-column\\\" style=\\\"padding: 10px;\\\"><div style=\\\"width:100%;margin:0 0 10px;padding:5px;display: flex;\\\" class=\\\"loree-iframe-content-image-wrapper\\\"><img alt=\\\"\\\" style=\\\"width:auto;height:auto;max-width:100%;max-height:100%;border-width:0;border-style:solid;border-color:#000000\\\" class=\\\"loree-iframe-content-image\\\" src=\\\"https://loreev2storage24cd6295054c4df4b5661676008c768e105225-local.s3.ap-southeast-2.amazonaws.com/public/d66b1309-ac2b-48e5-b96f-c0098e8baf0a/d0f5eb54-d676-4d7c-a647-e0fe8298c471/-1643782927527?X-Amz-Algorithm=AWS4-HMAC-SHA256&amp;X-Amz-Content-Sha256=UNSIGNED-PAYLOAD&amp;X-Amz-Credential=ASIATHBL7ES3PDDDMAVP%2F20220227%2Fap-southeast-2%2Fs3%2Faws4_request&amp;X-Amz-Date=20220227T151057Z&amp;X-Amz-Expires=900&amp;X-Amz-Security-Token=IQoJb3JpZ2luX2VjEH8aDmFwLXNvdXRoZWFzdC0yIkYwRAIgYNMHasmmJWtDp10%2FqUgC9FnHq00tXSGEQrlGFSsReMgCIAgOfTOB%2FlesAJo0d25HwkLDYoFplFAiiY%2FsXeN95AIvKusECNj%2F%2F%2F%2F%2F%2F%2F%2F%2F%2FwEQAxoMMjIxMjgzMDM0Mjk0IgxJa4M4I%2FJSTXgAc9kqvwS%2FROPaNiBitEQ852IjFSKreqiex6VDw%2BxC04ioQIQgBzw%2FboBSLjYaMtUu0Q8ir9yf6TYsvRDbufswPOjMPeQUgDP0LOTkI3seVgp6DDhxdNnsGVjEsq7VK%2FB%2BYpdqXBQfatoCN4ArqjRIdwX4TRCM%2BOqCcxNwPgec%2B8YLLX1gburYbrr4P2DW%2FpUhIr%2F7f2aZ0ExcAgkom0kXocpzgtLrfsreeOJEe3WYxA7o7ySJwFpKGWi62438X3588MbOIBusH1v%2FdHxykmHw9bs488DgJMyCyXEcbWcfZQyens1X40ylMTTSBnDqX7%2Bk8HfxDSRQd88lVSB%2FezIycgusKgOtBfBaF%2BXRSRZv02eeQfBtLWGi0nbUQ3Ngb6Gp%2Fg%2BL5gt2EmpBNN%2F6Lx5WofFdzquv3J7jkLK4s62sw99NlZamAEuciD0kqDIuNlXrX4lYQMVYRdFccYP2bYC4zJQd0E%2F9QSo6Tcc6ccZMN3sUbml859VopkMuVjhX5oS%2BLVNImqoQRSMvcTcXrPPNckI39mVlpAwRZq488Wwzm13VF2ANBKmMj5BM4ysLXFFyzS%2FHcKkjcbjUBqWrwwJ%2FPSwi%2BM%2F9uCu%2F6lpqc%2BndACCWGGfHs70C%2ByOPHgO3G0pFcGPItTTIHHlgJj%2B6Hc95STCNTlGVgv2ljvrEGaPyG%2FUOQb90gkAV%2Fs5J6oExgdzTs343VHSu6rouTgYeIT4W2UjNoPkyrXEJS1bK64RY%2FFGKR3C1MKV2iKjhFPYKf6W28QJ50jDbpu6QBjqGAjwsMRxno9SWefsZz0cpl3eqf%2FZ4orM9RpruKWiE71OJGLaJMCYThMcYiEhRp4wuZLxVu4yDWux4YlkwfpHaY1x%2FcRW%2FtU%2BzEEV%2FgNj1K%2BCr%2F%2FW%2FNx%2B13oOSW2tYDzTKOflxLM4la6E66m7A0RHUXaG46ry4SG9WFvkfHBeySBaL0tSqSeG2P46ZqCWGXrNHtzaPJjkRyH94ZPcwLF8rtBCZ5qd%2B8gYjFP9xAzeyTBL3j8B60qrExAzcl7nxFt4%2BNW5TlFwWMEoIZjlEOaI68%2FP04vhzMgvc9JG6zW4eOy9rE8IN3pQouGRpY%2BValyghqvFm1eVroQ7DwgwuigLCZJs1guoNaAs%3D&amp;X-Amz-Signature=dd25305c60dfeb4227c3dd1014ac36729411bfd86560e9bdab82cfb96c1412a8&amp;X-Amz-SignedHeaders=host&amp;x-amz-user-agent=aws-sdk-js-v3-%40aws-sdk%2Fclient-s3%2F1.0.0-gamma.8%20Mozilla%2F5.0%20%28X11%3B%20Ubuntu%3B%20Linux%20x86_64%3B%20rv%3A93.0%29%20Gecko%2F20100101%20Firefox%2F93.0%20aws-amplify%2F3.8.1%20js&amp;x-id=GetObject\\\" data-api-endpoint=\\\"https://crystaldelta.instructure.com/api/v1/courses/875/files/372880\\\" data-api-returntype=\\\"File\\\"></div><div style=\\\"width:100%;margin:0 0 10px;padding:5px;display: flex;\\\" class=\\\"loree-iframe-content-image-wrapper\\\"><img alt=\\\"\\\" style=\\\"width:auto;height:auto;max-width:100%;max-height:100%;border-width:0;border-style:solid;border-color:#000000\\\" class=\\\"loree-iframe-content-image\\\" src=\\\"https://loreev2storage24cd6295054c4df4b5661676008c768e105225-local.s3.ap-southeast-2.amazonaws.com/public/d66b1309-ac2b-48e5-b96f-c0098e8baf0a/d0f5eb54-d676-4d7c-a647-e0fe8298c471/-1643782931371?X-Amz-Algorithm=AWS4-HMAC-SHA256&amp;X-Amz-Content-Sha256=UNSIGNED-PAYLOAD&amp;X-Amz-Credential=ASIATHBL7ES3PDDDMAVP%2F20220227%2Fap-southeast-2%2Fs3%2Faws4_request&amp;X-Amz-Date=20220227T151057Z&amp;X-Amz-Expires=900&amp;X-Amz-Security-Token=IQoJb3JpZ2luX2VjEH8aDmFwLXNvdXRoZWFzdC0yIkYwRAIgYNMHasmmJWtDp10%2FqUgC9FnHq00tXSGEQrlGFSsReMgCIAgOfTOB%2FlesAJo0d25HwkLDYoFplFAiiY%2FsXeN95AIvKusECNj%2F%2F%2F%2F%2F%2F%2F%2F%2F%2FwEQAxoMMjIxMjgzMDM0Mjk0IgxJa4M4I%2FJSTXgAc9kqvwS%2FROPaNiBitEQ852IjFSKreqiex6VDw%2BxC04ioQIQgBzw%2FboBSLjYaMtUu0Q8ir9yf6TYsvRDbufswPOjMPeQUgDP0LOTkI3seVgp6DDhxdNnsGVjEsq7VK%2FB%2BYpdqXBQfatoCN4ArqjRIdwX4TRCM%2BOqCcxNwPgec%2B8YLLX1gburYbrr4P2DW%2FpUhIr%2F7f2aZ0ExcAgkom0kXocpzgtLrfsreeOJEe3WYxA7o7ySJwFpKGWi62438X3588MbOIBusH1v%2FdHxykmHw9bs488DgJMyCyXEcbWcfZQyens1X40ylMTTSBnDqX7%2Bk8HfxDSRQd88lVSB%2FezIycgusKgOtBfBaF%2BXRSRZv02eeQfBtLWGi0nbUQ3Ngb6Gp%2Fg%2BL5gt2EmpBNN%2F6Lx5WofFdzquv3J7jkLK4s62sw99NlZamAEuciD0kqDIuNlXrX4lYQMVYRdFccYP2bYC4zJQd0E%2F9QSo6Tcc6ccZMN3sUbml859VopkMuVjhX5oS%2BLVNImqoQRSMvcTcXrPPNckI39mVlpAwRZq488Wwzm13VF2ANBKmMj5BM4ysLXFFyzS%2FHcKkjcbjUBqWrwwJ%2FPSwi%2BM%2F9uCu%2F6lpqc%2BndACCWGGfHs70C%2ByOPHgO3G0pFcGPItTTIHHlgJj%2B6Hc95STCNTlGVgv2ljvrEGaPyG%2FUOQb90gkAV%2Fs5J6oExgdzTs343VHSu6rouTgYeIT4W2UjNoPkyrXEJS1bK64RY%2FFGKR3C1MKV2iKjhFPYKf6W28QJ50jDbpu6QBjqGAjwsMRxno9SWefsZz0cpl3eqf%2FZ4orM9RpruKWiE71OJGLaJMCYThMcYiEhRp4wuZLxVu4yDWux4YlkwfpHaY1x%2FcRW%2FtU%2BzEEV%2FgNj1K%2BCr%2F%2FW%2FNx%2B13oOSW2tYDzTKOflxLM4la6E66m7A0RHUXaG46ry4SG9WFvkfHBeySBaL0tSqSeG2P46ZqCWGXrNHtzaPJjkRyH94ZPcwLF8rtBCZ5qd%2B8gYjFP9xAzeyTBL3j8B60qrExAzcl7nxFt4%2BNW5TlFwWMEoIZjlEOaI68%2FP04vhzMgvc9JG6zW4eOy9rE8IN3pQouGRpY%2BValyghqvFm1eVroQ7DwgwuigLCZJs1guoNaAs%3D&amp;X-Amz-Signature=261f9a9bd9cadc716a3b9761537da8048323c505b068d38e1ff04e8c9ef2c3f6&amp;X-Amz-SignedHeaders=host&amp;x-amz-user-agent=aws-sdk-js-v3-%40aws-sdk%2Fclient-s3%2F1.0.0-gamma.8%20Mozilla%2F5.0%20%28X11%3B%20Ubuntu%3B%20Linux%20x86_64%3B%20rv%3A93.0%29%20Gecko%2F20100101%20Firefox%2F93.0%20aws-amplify%2F3.8.1%20js&amp;x-id=GetObject\\\" data-api-endpoint=\\\"https://crystaldelta.instructure.com/api/v1/courses/875/files/372878\\\" data-api-returntype=\\\"File\\\"></div></div></div><div class=\\\"loree-iframe-content-row row\\\" style=\\\"padding: 10px; position:relative; margin: 0px\\\"><div class=\\\"col-12 loree-iframe-content-column\\\" style=\\\"padding:10px;\\\"></div></div>\",\"featureListToggle\":true}}"
				},
				"url": {
					"raw": "https://u5uy6pdtbnhbla6o7xx4w7zpk4.appsync-api.ap-southeast-2.amazonaws.com/graphql",
					"protocol": "https",
					"host": [
						"u5uy6pdtbnhbla6o7xx4w7zpk4",
						"appsync-api",
						"ap-southeast-2",
						"amazonaws",
						"com"
					],
					"path": [
						"graphql"
					]
				}
			},
			"response": []
		}
	],
	"event": [
		{
			"listen": "prerequest",
			"script": {
				"type": "text/javascript",
				"exec": [
					""
				]
			}
		},
		{
			"listen": "test",
			"script": {
				"type": "text/javascript",
				"exec": [
					"var authorizationLocal = pm.variables.get(\"AuthorizationLocal\");",
					"",
					"pm.globals.set(\"AuthorizationLocal\", authorizationLocal);"
				]
			}
		}
	],
	"variable": [
		{
			"key": "AuthorizationLocal",
			"value": "eyJraWQiOiJMWHJjMlwvbGNOTm43Q215VEloUFwvaDEyNDQ2bk1xRU4yTmlLTnVJVGxEUDA9IiwiYWxnIjoiUlMyNTYifQ.eyJzdWIiOiJkMGY1ZWI1NC1kNjc2LTRkN2MtYTY0Ny1lMGZlODI5OGM0NzEiLCJjdXN0b206bG1zX2VtYWlsIjoiYXJ1bnNoYW5rYXIubWFoZXNod2FyYW5AY3J5c3RhbGRlbHRhLmNvbSIsImN1c3RvbTpwbGF0Zm9ybSI6ImQ2NmIxMzA5LWFjMmItNDhlNS1iOTZmLWMwMDk4ZThiYWYwYSIsImlzcyI6Imh0dHBzOlwvXC9jb2duaXRvLWlkcC5hcC1zb3V0aGVhc3QtMi5hbWF6b25hd3MuY29tXC9hcC1zb3V0aGVhc3QtMl9EOVpjcVhaRXciLCJjb2duaXRvOnVzZXJuYW1lIjoiZDBmNWViNTQtZDY3Ni00ZDdjLWE2NDctZTBmZTgyOThjNDcxIiwiYXVkIjoiNmdtMjFxdTVxaTMxcXVlbzl2b3VrZTI3czIiLCJldmVudF9pZCI6IjMyYjU0NGQ4LWM3ZTAtNDc4MS1hYTk0LTE3MjIxZjY3NTZmMyIsInRva2VuX3VzZSI6ImlkIiwiYXV0aF90aW1lIjoxNjQ2MTEzMTIwLCJuYW1lIjoiQXJ1biBTaGFua2FyIiwiZXhwIjoxNjQ2MTE2NzIwLCJpYXQiOjE2NDYxMTMxMjAsImVtYWlsIjoiY2FudmFzXzEyMzY3MDAwMDAwMDAwMTMyNEBleGFtcGxlLmNvbSJ9.cCYJtaUqXDiXaGLbVJLQ2yCtPBWoQY5l03olvU44jklf5JSxDba4DL0nEVzn_jZGAOVF39VIZ6Jdm4azwAtUVkFzuYB1BT9JlO6x6aS0cN7R-fkblAAcvZzRFnUOZIgnCMNFiqhZ0l_1m6KmOQIWSDZ0LZX9nl9h0po85XUP5mN9eJ57Fi5GQ-b-Y3yUsyUPsIdjICvshDOdYf_VE4JDy2k5naF1DqS8fAAwa6ffN5ekK75fEH67aXI-7ODwZQ_xQ2zv2DyQyMkxv4VGvcam-pG2APFHW88XKkH_XO6rBTJigqY11ijNk_YqQ9lSj5Gkgs4x4H42ju-CORY8hZD43A",
			"type": "string"
		}
	]
}