<svg xmlns="http://www.w3.org/2000/svg" width="34" height="34" viewBox="0 0 34 34">
  <g id="image_preset" transform="translate(15106 12187)">
    <rect id="Rectangle_3661" data-name="Rectangle 3661" width="34" height="34" rx="4" transform="translate(-15106 -12187)" fill="#585858"/>
    <path id="Union_44" data-name="Union 44" d="M1.37,18.037a1.286,1.286,0,0,1-1.009-.521,1.875,1.875,0,0,1-.287-1.637L4.039,1.114A1.426,1.426,0,0,1,5.285,0,1.357,1.357,0,0,1,6.613.908L9.354,7.579,11,5.226a1.3,1.3,0,0,1,1.756-.377,1.262,1.262,0,0,1,.478.527l3.177,5.41.621-1.274a1.268,1.268,0,0,1,.641-.7,1.315,1.315,0,0,1,.991-.064,1.28,1.28,0,0,1,.824.83l2.731,6.041a1.938,1.938,0,0,1-.149,1.815,1.309,1.309,0,0,1-1.085.6ZM5.1,1.394,1.139,16.16a.807.807,0,0,0,.1.7.213.213,0,0,0,.131.094H20.984a.233.233,0,0,0,.166-.12.868.868,0,0,0,.054-.789L18.463,9.984a.573.573,0,0,1-.029-.079.19.19,0,0,0-.125-.131.2.2,0,0,0-.148.009.19.19,0,0,0-.1.109.5.5,0,0,1-.025.06l-.683,1.4a1,1,0,0,1-.509.536,1.013,1.013,0,0,1-.766.035.985.985,0,0,1-.555-.482L12.264,5.893c-.01-.016-.019-.034-.027-.052a.177.177,0,0,0-.068-.078.183.183,0,0,0-.247.056l-1.749,2.5a1,1,0,0,1-.62.421,1.012,1.012,0,0,1-1.195-.7L5.591,1.315c-.06-.141-.15-.234-.23-.234H5.354C5.274,1.086,5.162,1.186,5.1,1.394ZM9.249,7.73l0,0S9.25,7.729,9.249,7.73Zm8.566-2.123a2.742,2.742,0,0,1-2.767-2.714,2.767,2.767,0,0,1,5.534.011,2.738,2.738,0,0,1-2.767,2.7Z" transform="translate(-15100 -12179)" fill="#fff"/>
  </g>
</svg>
