<svg xmlns="http://www.w3.org/2000/svg" width="152.376" height="13.037" viewBox="0 0 152.376 13.037">
  <g id="two_images_opposite" transform="translate(30 -5.482)">
    <rect id="Rectangle_3238" data-name="Rectangle 3238" width="40" height="12" transform="translate(6 6)" fill="#585858"/>
    <rect id="Rectangle_3240" data-name="Rectangle 3240" width="40" height="12" transform="translate(47 6)" fill="#909090"/>
    <path id="Union_168" data-name="Union 168" d="M1,13.037a.945.945,0,0,1-.739-.376,1.341,1.341,0,0,1-.21-1.183L2.956.805A1.04,1.04,0,0,1,3.868,0,.993.993,0,0,1,4.84.656L6.846,5.478l1.2-1.7A.955.955,0,0,1,9.335,3.5a.916.916,0,0,1,.35.381L12.01,7.8l.455-.921a.921.921,0,0,1,.469-.5.974.974,0,0,1,.725-.047.931.931,0,0,1,.6.6l2,4.366a1.386,1.386,0,0,1-.109,1.312.961.961,0,0,1-.794.434ZM3.736,1.007.834,11.68a.578.578,0,0,0,.073.507.156.156,0,0,0,.1.068H15.357a.17.17,0,0,0,.122-.087.62.62,0,0,0,.039-.57L13.512,7.216a.411.411,0,0,1-.021-.057.138.138,0,0,0-.091-.094.149.149,0,0,0-.108.007.138.138,0,0,0-.071.079.361.361,0,0,1-.019.043l-.5,1.014a.724.724,0,0,1-.372.387.75.75,0,0,1-.561.026.718.718,0,0,1-.406-.348L8.975,4.259c-.007-.012-.014-.025-.02-.037a.128.128,0,0,0-.05-.057.135.135,0,0,0-.181.04L7.444,6.015a.732.732,0,0,1-.454.3.741.741,0,0,1-.874-.5L4.092.95c-.044-.1-.11-.169-.168-.169h0C3.86.785,3.778.858,3.736,1.007ZM6.769,5.587l0,0Zm6.269-1.535A2,2,0,0,1,11.013,2.09a2.026,2.026,0,0,1,4.05.008,1.992,1.992,0,0,1-2.025,1.954Z" transform="translate(-30 5.482)"/>
    <path id="Union_189" data-name="Union 189" d="M1,13.037a.945.945,0,0,1-.739-.376,1.341,1.341,0,0,1-.21-1.183L2.956.805A1.04,1.04,0,0,1,3.868,0,.993.993,0,0,1,4.84.656L6.846,5.478l1.2-1.7A.955.955,0,0,1,9.335,3.5a.916.916,0,0,1,.35.381L12.01,7.8l.455-.921a.921.921,0,0,1,.469-.5.974.974,0,0,1,.725-.047.931.931,0,0,1,.6.6l2,4.366a1.386,1.386,0,0,1-.109,1.312.961.961,0,0,1-.794.434ZM3.736,1.007.834,11.68a.578.578,0,0,0,.073.507.156.156,0,0,0,.1.068H15.357a.17.17,0,0,0,.122-.087.62.62,0,0,0,.039-.57L13.512,7.216a.411.411,0,0,1-.021-.057.138.138,0,0,0-.091-.094.149.149,0,0,0-.108.007.138.138,0,0,0-.071.079.361.361,0,0,1-.019.043l-.5,1.014a.724.724,0,0,1-.372.387.75.75,0,0,1-.561.026.718.718,0,0,1-.406-.348L8.975,4.259c-.007-.012-.014-.025-.02-.037a.128.128,0,0,0-.05-.057.135.135,0,0,0-.181.04L7.444,6.015a.732.732,0,0,1-.454.3.741.741,0,0,1-.874-.5L4.092.95c-.044-.1-.11-.169-.168-.169h0C3.86.785,3.778.858,3.736,1.007ZM6.769,5.587l0,0Zm6.269-1.535A2,2,0,0,1,11.013,2.09a2.026,2.026,0,0,1,4.05.008,1.992,1.992,0,0,1-2.025,1.954Z" transform="translate(106 5.482)"/>
  </g>
</svg>
