[
  "https://master.d1uzdukkodhm61.amplifyapp.com",
  "https://stg-loree-v2.crystaldelta.net",
  "https://dev-loree-v2.crystaldelta.net",
  "http://localhost:3000",
  "https://loree-int-dev.crystaldelta.net",
  "https://stg.loree-interactive.crystaldelta.net",
  "https://loree-int.crystaldelta.net",
  "https://loree-h5p-dev.crystaldelta.net",
  "https://loree-h5p.crystaldelta.net",
  "https://master.dsw63snfssb15.amplifyapp.com",
  "https://new-develop.d19viipu2480ae.amplifyapp.com",
  "https://master.d273ugfkhsuatz.amplifyapp.com"
]
