<svg xmlns="http://www.w3.org/2000/svg" width="20.266" height="21.507" viewBox="0 0 20.266 21.507">
  <path id="effects" d="M1454.154,1106.846a.527.527,0,0,1,0-.746l6.8-6.8-3.54-.6,3.156-2.938-.632-4.266,3.771,2.093,3.862-1.919-.826,4.232,3.019,3.08-4.281.523-2,3.822-1.61-3.46-6.972,6.973a.527.527,0,0,1-.746,0Zm7.538-10.684-2,1.86,2.691.454,1.152,2.475,1.264-2.42,2.709-.33-1.91-1.949.523-2.679-2.444,1.215-2.387-1.325Zm5.108,7.143-.529-.164.452-.32-.007-.554.444.331.525-.178-.178.525.331.444-.554-.007-.32.452Zm4.932-5.617-.524-.163.448-.317-.007-.548.44.328.519-.176-.176.519.328.439-.548-.007-.316.448Zm-1.588-3.627-.75-.233.642-.454-.01-.786.63.47.744-.252-.252.744.47.63-.786-.01-.454.642Zm-12.414-2.338-.635-.2.543-.384-.009-.665.533.4.629-.214-.213.63.4.533-.665-.009-.384.543Zm5.621-.256-.5-.157.431-.3-.007-.528.423.316.5-.169-.169.5.316.423-.528-.007-.3.431Zm4.281-1.189-.593-.184.507-.359-.008-.621.5.371.588-.2-.2.588.371.5-.621-.008-.359.507Zm-7.5-2.182-.557-.173.477-.337-.008-.584.468.349.553-.188-.188.553.349.468-.584-.008-.337.477Z" transform="translate(-1453.5 -1085.993)" fill="#585858" stroke="rgba(0,0,0,0)" stroke-miterlimit="10" stroke-width="1"/>
</svg>
