<svg xmlns="http://www.w3.org/2000/svg" width="17" height="16.906" viewBox="0 0 17 16.906">
  <path id="properties" d="M1463.761,1101.619h-9.093a.666.666,0,1,1,0-1.332h9.093a1.953,1.953,0,0,1,3.672,0h1.9a.666.666,0,1,1,0,1.332h-1.9a1.953,1.953,0,0,1-3.672,0Zm1.218-.666a.618.618,0,1,0,.618-.618A.619.619,0,0,0,1464.979,1100.953Zm-5.588-5.314h-4.722a.666.666,0,1,1,0-1.332h4.722a1.954,1.954,0,0,1,3.672,0h6.27a.666.666,0,1,1,0,1.332h-6.269a1.953,1.953,0,0,1-3.672,0Zm1.218-.666a.618.618,0,1,0,.618-.618A.62.62,0,0,0,1460.608,1094.972Zm3.152-5.354h-9.093a.666.666,0,1,1,0-1.331h9.092a1.953,1.953,0,0,1,3.672,0h1.9a.666.666,0,1,1,0,1.331h-1.9a1.953,1.953,0,0,1-3.672,0Zm1.218-.666a.618.618,0,1,0,.618-.618A.62.62,0,0,0,1464.979,1088.952Z" transform="translate(-1453.5 -1086.5)" fill="#585858" stroke="rgba(0,0,0,0)" stroke-miterlimit="10" stroke-width="1"/>
</svg>
