<svg xmlns="http://www.w3.org/2000/svg" width="24" height="24" viewBox="0 0 24 24">
  <g id="Group_452" data-name="Group 452" transform="translate(-0.141)">
    <g id="Ellipse_121" data-name="Ellipse 121" transform="translate(0.141)" fill="#fff" stroke="#000d9c" stroke-width="1">
      <circle cx="12" cy="12" r="12" stroke="none"/>
      <circle cx="12" cy="12" r="11.5" fill="none"/>
    </g>
    <g id="Group_57" data-name="Group 57" transform="translate(17.448 6.405) rotate(90)">
      <g id="Group_56" data-name="Group 56">
        <path id="Path_2709" data-name="Path 2709" d="M10.331,4.81h-4.1V.712a.712.712,0,1,0-1.423,0v4.1H.712a.712.712,0,0,0,0,1.423h4.1v4.1a.712.712,0,1,0,1.423,0v-4.1h4.1a.712.712,0,0,0,0-1.423Z" fill="#000d9c"/>
      </g>
    </g>
  </g>
</svg>
