<svg id="Group_450" data-name="Group 450" xmlns="http://www.w3.org/2000/svg" width="24" height="24" viewBox="0 0 24 24">
  <g id="Ellipse_102" data-name="Ellipse 102" fill="#fff" stroke="#000d9c" stroke-width="1">
    <circle cx="12" cy="12" r="12" stroke="none"/>
    <circle cx="12" cy="12" r="11.5" fill="none"/>
  </g>
  <g id="Group_254" data-name="Group 254" transform="translate(7.117 7.117)">
    <g id="Group_65" data-name="Group 65" transform="translate(0 0)">
      <rect id="Rectangle_107" data-name="Rectangle 107" width="4" height="4" transform="translate(-0.117 -0.116)" fill="#000d9c"/>
      <rect id="Rectangle_109" data-name="Rectangle 109" width="4" height="4" transform="translate(-0.117 5.884)" fill="#000d9c"/>
      <rect id="Rectangle_108" data-name="Rectangle 108" width="4" height="10" transform="translate(5.883 -0.116)" fill="#000d9c"/>
    </g>
  </g>
</svg>
