{
  "id": {
    "S": "d66b1309-ac2b-48e5-b96f-c0098e8baf0a"
  },
  "accesstokenEndpoint": {
    "S": "https://canvas.instructure.com/login/oauth2/auth"
  },
  "authConfig": {
    "M": {
      "key": {
        "S": "https://canvas.instructure.com/api/lti/security/jwks"
      },
      "method": {
        "S": "JWK_SET"
      }
    }
  },
  "authEndpoint": {
    "S": "https://canvas.instructure.com/api/lti/authorize_redirect"
  },
  "clientId": {
    "S": "123670000000000476"
  },
  "createdAt": {
    "S": "2020-09-10T08:22:53.214Z"
  },
  "platformName": {
    "S": "Loree-v2-Shanedev"
  },
  "platformUrl": {
    "S": "https://canvas.instructure.com"
  },
  "updatedAt": {
    "S": "2020-09-10T09:00:28.116Z"
  },
  "__typename": {
    "S": "LtiPlatform"
  }
}
